<?xml version="1.0" standalone="no"?>
<!DOCTYPE svg PUBLIC "-//W3C//DTD SVG 20010904//EN"
 "http://www.w3.org/TR/2001/REC-SVG-20010904/DTD/svg10.dtd">
<svg version="1.0" xmlns="http://www.w3.org/2000/svg"
 width="512.000000pt" height="512.000000pt" viewBox="0 0 512.000000 512.000000"
 preserveAspectRatio="xMidYMid meet">
<metadata>
Created by potrace 1.11, written by Peter Selinger 2001-2013
</metadata>
<g transform="translate(0.000000,512.000000) scale(0.100000,-0.100000)"
fill="#000000" stroke="none">
<path d="M1140 3820 c-526 -98 -930 -494 -1035 -1015 -20 -98 -27 -341 -12
-430 5 -27 10 -59 11 -70 5 -31 45 -171 62 -213 136 -329 391 -590 705 -720
90 -37 238 -77 329 -88 36 -4 706 -8 1490 -8 l1425 -1 0 433 0 432 20 -27 c11
-14 70 -95 130 -178 61 -84 193 -267 294 -407 l185 -254 150 1 151 0 0 628 0
627 -22 1 c-13 0 -52 0 -88 0 -36 0 -105 0 -153 0 l-88 -1 0 -369 c1 -204 -1
-379 -4 -390 -5 -18 -123 140 -375 499 -22 32 -75 106 -117 165 l-78 108 49
36 c27 20 95 68 151 106 57 39 138 95 181 125 43 30 130 91 194 134 63 44 113
81 111 84 -11 11 -555 26 -946 25 -288 0 -589 -7 -715 -18 -205 -17 -316 -29
-370 -39 -11 -2 -45 -7 -75 -11 -77 -10 -250 -51 -345 -81 -300 -98 -627 -276
-943 -516 -114 -87 -237 -188 -228 -188 3 0 43 15 88 34 221 91 684 218 916
252 20 2 60 9 87 14 28 5 70 12 95 15 25 4 59 8 75 11 17 2 57 8 90 12 47 6
537 7 1073 2 l52 0 -2 -447 -3 -447 -1155 1 c-635 0 -1189 3 -1231 7 -445 39
-802 424 -813 876 -10 405 236 759 619 889 144 49 130 49 1633 49 l1407 0 0
183 0 184 -1440 1 c-1338 2 -1447 1 -1535 -16z"/>
</g>
</svg>
